<?xml version="1.0" encoding="UTF-8"?>
<svg width="16px" height="18px" viewBox="0 0 16 18" version="1.1" xmlns="http://www.w3.org/2000/svg" xmlns:xlink="http://www.w3.org/1999/xlink">
    <!-- Generator: sketchtool 49 (51002) - http://www.bohemiancoding.com/sketch -->
    <title>3DA7B0F2-0A18-4A6A-8847-F36E7E4EC9E3</title>
    <desc>Created with sketchtool.</desc>
    <defs></defs>
    <g id="Symbols" stroke="none" stroke-width="1" fill="none" fill-rule="evenodd">
        <g id="Error" transform="translate(-1.000000, -1.000000)" fill="#F26C4F" fill-rule="nonzero">
            <g id="noun_89465_cc" transform="translate(9.000000, 10.000000) scale(-1, 1) translate(-9.000000, -10.000000) translate(1.000000, 1.000000)">
                <g id="Group">
                    <g id="Combined-Shape">
                        <path d="M1.36859642,0 L14.1299791,0 C14.8862394,0 15.4985755,0.6191076 15.4985755,1.38281548 L15.4985755,13.3864153 C15.4985755,14.1534187 14.8870316,14.7692308 14.1326539,14.7692308 L4.37752191,14.7692308 C3.46710838,14.7692308 2.44043546,15.4501078 2.07701903,16.2900121 L1.62431812,17.3827399 C1.4695228,17.7563843 1.10490198,18 0.700461979,18 L0.684298211,18 C0.306370745,18 8.1894622e-13,17.6936293 1.8277195e-12,17.3157018 C2.06731507e-12,17.2259972 2.30691064e-12,17.1362926 2.54650622e-12,17.046588 C2.54650622e-12,13.5656888 2.54650622e-12,8.34434007 2.54650622e-12,1.38254169 C2.54650622e-12,0.619600754 0.612741516,0 1.36859642,0 Z M8.22222222,4.20302822 L7.11111111,4.20302822 L7.11111111,8.70302822 L8.22222222,8.70302822 L8.22222222,4.20302822 Z M8.22222222,9.60302822 L7.11111111,9.60302822 L7.11111111,10.7280282 L8.22222222,10.7280282 L8.22222222,9.60302822 Z"></path>
                    </g>
                </g>
            </g>
        </g>
    </g>
</svg>